    10        0.0000        0.0186        0.0249        0.0259        0.0262
    20        0.0000        0.0177        0.0159        0.0259        0.0162
    30        0.0000        0.0241        0.0255        0.0262        0.0258
    40        0.0001        0.0148        0.0001        0.0000        0.0000
    50        0.0001        0.0000        0.0001        0.0001        0.0001
    60        0.0002        0.0000        0.0001        0.0001        0.0001
    70        0.0003        0.0001        0.0002        0.0001        0.0001
    80        0.0005        0.0001        0.0003        0.0002        0.0001
    90        0.0007        0.0008        0.0012        0.0007        0.0002
    100        0.0010        0.0002        0.0005        0.0004        0.0002
    200        0.0077        0.0032        0.0074        0.0026        0.0018
    300        0.0268        0.0070        0.0151        0.0119        0.0068
    400        0.0587        0.0167        0.0334        0.0242        0.0149
    500        0.1140        0.0292        0.0651        0.0571        0.0364
    600        0.1989        0.0508        0.1091        0.0919        0.0641
    700        0.3552        0.1252        0.2209        0.1083        0.1247
    800        0.5802        0.2163        0.3134        0.1391        0.1383
    900        0.8767        0.3157        0.5113        0.2835        0.3500
    1000        1.2809        0.9252        0.9693        0.8203        0.8910
    1100        2.3780        1.1903        1.0817        0.3966        1.1674
    1200        3.6569        1.5612        1.3319        0.9062        1.6482
    1300        2.9491        2.2355        1.4602        0.7487        2.2697
    1400        5.4562        2.9128        2.8810        1.3856        2.8483
    1500        7.1318        3.5856        3.4803        1.7204        3.5499
    1600        12.4561        4.4322        6.2224        2.9626        4.3965
    1700        18.2972        5.6767        9.2136        4.6247        5.7997
    1800        24.4904        6.9044        11.9078        6.1168        6.7585
    1900        30.6503        8.4394        16.4009        10.7912        8.0776
    2000        41.9663        12.7878        19.7819        9.9769        9.6853
